[gd_resource type="TileSet" load_steps=5 format=3 uid="uid://k40275fxwd5k"]

[ext_resource type="Texture2D" uid="uid://da3baqnnaidip" path="res://assets/images/game/blocks.png" id="1_f0wsu"]
[ext_resource type="Texture2D" uid="uid://csk0t5b3ojsys" path="res://assets/images/game/terrain_lines.png" id="2_u1goh"]

[sub_resource type="TileSetAtlasSource" id="TileSetAtlasSource_8liv6"]
resource_name = "BLOCKS"
texture = ExtResource("1_f0wsu")
texture_region_size = Vector2i(12, 12)
0:0/0 = 0
0:0/0/physics_layer_0/linear_velocity = Vector2(0, 0)
0:0/0/physics_layer_0/angular_velocity = 0.0
0:0/0/physics_layer_0/polygon_0/points = PackedVector2Array(-6, -6, 6, -6, 6, 6, -6, 6)
1:0/0 = 0
1:0/0/physics_layer_0/linear_velocity = Vector2(0, 0)
1:0/0/physics_layer_0/angular_velocity = 0.0
1:0/0/physics_layer_0/polygon_0/points = PackedVector2Array(-6, -6, 6, -6, 6, 6, -6, 6)
2:0/0 = 0
2:0/0/physics_layer_0/linear_velocity = Vector2(0, 0)
2:0/0/physics_layer_0/angular_velocity = 0.0
2:0/0/physics_layer_0/polygon_0/points = PackedVector2Array(-6, -6, 6, -6, 6, 6, -6, 6)
3:0/0 = 0
3:0/0/physics_layer_0/linear_velocity = Vector2(0, 0)
3:0/0/physics_layer_0/angular_velocity = 0.0
3:0/0/physics_layer_0/polygon_0/points = PackedVector2Array(-6, -6, 6, -6, 6, 6, -6, 6)
4:0/0 = 0
4:0/0/physics_layer_0/linear_velocity = Vector2(0, 0)
4:0/0/physics_layer_0/angular_velocity = 0.0
4:0/0/physics_layer_0/polygon_0/points = PackedVector2Array(-6, -6, 6, -6, 6, 6, -6, 6)
5:0/0 = 0
5:0/0/physics_layer_0/linear_velocity = Vector2(0, 0)
5:0/0/physics_layer_0/angular_velocity = 0.0
5:0/0/physics_layer_0/polygon_0/points = PackedVector2Array(-6, -6, 6, -6, 6, 6, -6, 6)

[sub_resource type="TileSetAtlasSource" id="TileSetAtlasSource_aid36"]
resource_name = "TERRAIN_LINES"
texture = ExtResource("2_u1goh")
texture_region_size = Vector2i(12, 12)
0:0/0 = 0
0:0/0/terrain_set = 0
0:0/0/terrain = 0
0:0/0/physics_layer_0/linear_velocity = Vector2(0, 0)
0:0/0/physics_layer_0/angular_velocity = 0.0
0:0/0/terrains_peering_bit/right_side = 0
0:0/0/terrains_peering_bit/bottom_right_corner = 0
0:0/0/terrains_peering_bit/bottom_side = 0
1:0/0 = 0
1:0/0/terrain_set = 0
1:0/0/terrain = 0
1:0/0/physics_layer_0/linear_velocity = Vector2(0, 0)
1:0/0/physics_layer_0/angular_velocity = 0.0
1:0/0/terrains_peering_bit/right_side = 0
1:0/0/terrains_peering_bit/bottom_right_corner = 0
1:0/0/terrains_peering_bit/bottom_side = 0
1:0/0/terrains_peering_bit/bottom_left_corner = 0
1:0/0/terrains_peering_bit/left_side = 0
2:0/0 = 0
2:0/0/terrain_set = 0
2:0/0/terrain = 0
2:0/0/physics_layer_0/linear_velocity = Vector2(0, 0)
2:0/0/physics_layer_0/angular_velocity = 0.0
2:0/0/terrains_peering_bit/bottom_side = 0
2:0/0/terrains_peering_bit/bottom_left_corner = 0
2:0/0/terrains_peering_bit/left_side = 0
3:0/0 = 0
3:0/0/terrain_set = 0
3:0/0/terrain = 0
3:0/0/physics_layer_0/linear_velocity = Vector2(0, 0)
3:0/0/physics_layer_0/angular_velocity = 0.0
3:0/0/terrains_peering_bit/bottom_side = 0
4:0/0 = 0
4:0/0/terrain_set = 0
4:0/0/terrain = 0
4:0/0/physics_layer_0/linear_velocity = Vector2(0, 0)
4:0/0/physics_layer_0/angular_velocity = 0.0
4:0/0/terrains_peering_bit/right_side = 0
4:0/0/terrains_peering_bit/bottom_side = 0
5:0/0 = 0
5:0/0/terrain_set = 0
5:0/0/terrain = 0
5:0/0/physics_layer_0/linear_velocity = Vector2(0, 0)
5:0/0/physics_layer_0/angular_velocity = 0.0
5:0/0/terrains_peering_bit/right_side = 0
5:0/0/terrains_peering_bit/bottom_side = 0
5:0/0/terrains_peering_bit/bottom_left_corner = 0
5:0/0/terrains_peering_bit/left_side = 0
6:0/0 = 0
6:0/0/terrain_set = 0
6:0/0/terrain = 0
6:0/0/physics_layer_0/linear_velocity = Vector2(0, 0)
6:0/0/physics_layer_0/angular_velocity = 0.0
6:0/0/terrains_peering_bit/right_side = 0
6:0/0/terrains_peering_bit/bottom_right_corner = 0
6:0/0/terrains_peering_bit/bottom_side = 0
6:0/0/terrains_peering_bit/left_side = 0
7:0/0 = 0
7:0/0/terrain_set = 0
7:0/0/terrain = 0
7:0/0/physics_layer_0/linear_velocity = Vector2(0, 0)
7:0/0/physics_layer_0/angular_velocity = 0.0
7:0/0/terrains_peering_bit/bottom_side = 0
7:0/0/terrains_peering_bit/left_side = 0
8:0/0 = 0
8:0/0/terrain_set = 0
8:0/0/terrain = 0
8:0/0/physics_layer_0/linear_velocity = Vector2(0, 0)
8:0/0/physics_layer_0/angular_velocity = 0.0
8:0/0/terrains_peering_bit/right_side = 0
8:0/0/terrains_peering_bit/bottom_side = 0
8:0/0/terrains_peering_bit/left_side = 0
9:0/0 = 0
9:0/0/terrain_set = 0
9:0/0/terrain = 0
9:0/0/physics_layer_0/linear_velocity = Vector2(0, 0)
9:0/0/physics_layer_0/angular_velocity = 0.0
9:0/0/terrains_peering_bit/right_side = 0
9:0/0/terrains_peering_bit/bottom_right_corner = 0
9:0/0/terrains_peering_bit/bottom_side = 0
9:0/0/terrains_peering_bit/left_side = 0
9:0/0/terrains_peering_bit/top_left_corner = 0
9:0/0/terrains_peering_bit/top_side = 0
10:2/0 = 0
10:2/0/terrain_set = 0
10:2/0/terrain = 0
10:2/0/physics_layer_0/linear_velocity = Vector2(0, 0)
10:2/0/physics_layer_0/angular_velocity = 0.0
10:2/0/terrains_peering_bit/right_side = 0
10:2/0/terrains_peering_bit/bottom_side = 0
10:2/0/terrains_peering_bit/bottom_left_corner = 0
10:2/0/terrains_peering_bit/left_side = 0
10:2/0/terrains_peering_bit/top_side = 0
10:3/0 = 0
10:3/0/terrain_set = 0
10:3/0/terrain = 0
10:3/0/physics_layer_0/linear_velocity = Vector2(0, 0)
10:3/0/physics_layer_0/angular_velocity = 0.0
10:3/0/terrains_peering_bit/right_side = 0
10:3/0/terrains_peering_bit/bottom_side = 0
10:3/0/terrains_peering_bit/left_side = 0
10:3/0/terrains_peering_bit/top_left_corner = 0
10:3/0/terrains_peering_bit/top_side = 0
9:3/0 = 0
9:3/0/terrain_set = 0
9:3/0/terrain = 0
9:3/0/physics_layer_0/linear_velocity = Vector2(0, 0)
9:3/0/physics_layer_0/angular_velocity = 0.0
9:3/0/terrains_peering_bit/right_side = 0
9:3/0/terrains_peering_bit/bottom_side = 0
9:3/0/terrains_peering_bit/left_side = 0
9:3/0/terrains_peering_bit/top_side = 0
9:3/0/terrains_peering_bit/top_right_corner = 0
9:2/0 = 0
9:2/0/terrain_set = 0
9:2/0/terrain = 0
9:2/0/physics_layer_0/linear_velocity = Vector2(0, 0)
9:2/0/physics_layer_0/angular_velocity = 0.0
9:2/0/terrains_peering_bit/right_side = 0
9:2/0/terrains_peering_bit/bottom_right_corner = 0
9:2/0/terrains_peering_bit/bottom_side = 0
9:2/0/terrains_peering_bit/left_side = 0
9:2/0/terrains_peering_bit/top_side = 0
9:1/0 = 0
9:1/0/terrain_set = 0
9:1/0/terrain = 0
9:1/0/physics_layer_0/linear_velocity = Vector2(0, 0)
9:1/0/physics_layer_0/angular_velocity = 0.0
9:1/0/terrains_peering_bit/right_side = 0
9:1/0/terrains_peering_bit/bottom_side = 0
9:1/0/terrains_peering_bit/bottom_left_corner = 0
9:1/0/terrains_peering_bit/left_side = 0
9:1/0/terrains_peering_bit/top_side = 0
9:1/0/terrains_peering_bit/top_right_corner = 0
8:1/0 = 0
8:1/0/terrain_set = 0
8:1/0/terrain = 0
8:1/0/physics_layer_0/linear_velocity = Vector2(0, 0)
8:1/0/physics_layer_0/angular_velocity = 0.0
8:1/0/terrains_peering_bit/right_side = 0
8:1/0/terrains_peering_bit/bottom_side = 0
8:1/0/terrains_peering_bit/left_side = 0
8:1/0/terrains_peering_bit/top_left_corner = 0
8:1/0/terrains_peering_bit/top_side = 0
8:1/0/terrains_peering_bit/top_right_corner = 0
7:1/0 = 0
7:1/0/terrain_set = 0
7:1/0/terrain = 0
7:1/0/physics_layer_0/linear_velocity = Vector2(0, 0)
7:1/0/physics_layer_0/angular_velocity = 0.0
7:1/0/terrains_peering_bit/bottom_side = 0
7:1/0/terrains_peering_bit/left_side = 0
7:1/0/terrains_peering_bit/top_left_corner = 0
7:1/0/terrains_peering_bit/top_side = 0
7:2/0 = 0
7:2/0/terrain_set = 0
7:2/0/terrain = 0
7:2/0/physics_layer_0/linear_velocity = Vector2(0, 0)
7:2/0/physics_layer_0/angular_velocity = 0.0
7:2/0/terrains_peering_bit/bottom_side = 0
7:2/0/terrains_peering_bit/bottom_left_corner = 0
7:2/0/terrains_peering_bit/left_side = 0
7:2/0/terrains_peering_bit/top_side = 0
8:2/0 = 0
8:2/0/terrain_set = 0
8:2/0/terrain = 0
8:2/0/physics_layer_0/linear_velocity = Vector2(0, 0)
8:2/0/physics_layer_0/angular_velocity = 0.0
8:2/0/terrains_peering_bit/right_side = 0
8:2/0/terrains_peering_bit/bottom_right_corner = 0
8:2/0/terrains_peering_bit/bottom_side = 0
8:2/0/terrains_peering_bit/bottom_left_corner = 0
8:2/0/terrains_peering_bit/left_side = 0
8:2/0/terrains_peering_bit/top_side = 0
8:3/0 = 0
8:3/0/terrain_set = 0
8:3/0/terrain = 0
8:3/0/physics_layer_0/linear_velocity = Vector2(0, 0)
8:3/0/physics_layer_0/angular_velocity = 0.0
8:3/0/terrains_peering_bit/right_side = 0
8:3/0/terrains_peering_bit/left_side = 0
8:3/0/terrains_peering_bit/top_side = 0
8:4/0 = 0
8:4/0/terrain_set = 0
8:4/0/terrain = 0
8:4/0/physics_layer_0/linear_velocity = Vector2(0, 0)
8:4/0/physics_layer_0/angular_velocity = 0.0
8:4/0/terrains_peering_bit/right_side = 0
8:4/0/terrains_peering_bit/bottom_side = 0
8:4/0/terrains_peering_bit/left_side = 0
8:4/0/terrains_peering_bit/top_side = 0
7:4/0 = 0
7:4/0/terrain_set = 0
7:4/0/terrain = 0
7:4/0/physics_layer_0/linear_velocity = Vector2(0, 0)
7:4/0/physics_layer_0/angular_velocity = 0.0
7:4/0/terrains_peering_bit/bottom_side = 0
7:4/0/terrains_peering_bit/left_side = 0
7:4/0/terrains_peering_bit/top_side = 0
7:3/0 = 0
7:3/0/terrain_set = 0
7:3/0/terrain = 0
7:3/0/physics_layer_0/linear_velocity = Vector2(0, 0)
7:3/0/physics_layer_0/angular_velocity = 0.0
7:3/0/terrains_peering_bit/left_side = 0
7:3/0/terrains_peering_bit/top_side = 0
6:3/0 = 0
6:3/0/terrain_set = 0
6:3/0/terrain = 0
6:3/0/physics_layer_0/linear_velocity = Vector2(0, 0)
6:3/0/physics_layer_0/angular_velocity = 0.0
6:3/0/terrains_peering_bit/right_side = 0
6:3/0/terrains_peering_bit/left_side = 0
6:3/0/terrains_peering_bit/top_side = 0
6:3/0/terrains_peering_bit/top_right_corner = 0
6:4/0 = 0
6:4/0/terrain_set = 0
6:4/0/terrain = 0
6:4/0/physics_layer_0/linear_velocity = Vector2(0, 0)
6:4/0/physics_layer_0/angular_velocity = 0.0
6:4/0/terrains_peering_bit/right_side = 0
6:4/0/terrains_peering_bit/bottom_right_corner = 0
6:4/0/terrains_peering_bit/bottom_side = 0
6:4/0/terrains_peering_bit/left_side = 0
6:4/0/terrains_peering_bit/top_side = 0
6:4/0/terrains_peering_bit/top_right_corner = 0
5:4/0 = 0
5:4/0/terrain_set = 0
5:4/0/terrain = 0
5:4/0/physics_layer_0/linear_velocity = Vector2(0, 0)
5:4/0/physics_layer_0/angular_velocity = 0.0
5:4/0/terrains_peering_bit/right_side = 0
5:4/0/terrains_peering_bit/bottom_side = 0
5:4/0/terrains_peering_bit/bottom_left_corner = 0
5:4/0/terrains_peering_bit/left_side = 0
5:4/0/terrains_peering_bit/top_left_corner = 0
5:4/0/terrains_peering_bit/top_side = 0
4:4/0 = 0
4:4/0/terrain_set = 0
4:4/0/terrain = 0
4:4/0/physics_layer_0/linear_velocity = Vector2(0, 0)
4:4/0/physics_layer_0/angular_velocity = 0.0
4:4/0/terrains_peering_bit/right_side = 0
4:4/0/terrains_peering_bit/bottom_side = 0
4:4/0/terrains_peering_bit/top_side = 0
4:3/0 = 0
4:3/0/terrain_set = 0
4:3/0/terrain = 0
4:3/0/physics_layer_0/linear_velocity = Vector2(0, 0)
4:3/0/physics_layer_0/angular_velocity = 0.0
4:3/0/terrains_peering_bit/right_side = 0
4:3/0/terrains_peering_bit/top_side = 0
4:2/0 = 0
4:2/0/terrain_set = 0
4:2/0/terrain = 0
4:2/0/physics_layer_0/linear_velocity = Vector2(0, 0)
4:2/0/physics_layer_0/angular_velocity = 0.0
4:2/0/terrains_peering_bit/right_side = 0
4:2/0/terrains_peering_bit/bottom_right_corner = 0
4:2/0/terrains_peering_bit/bottom_side = 0
4:2/0/terrains_peering_bit/top_side = 0
4:1/0 = 0
4:1/0/terrain_set = 0
4:1/0/terrain = 0
4:1/0/physics_layer_0/linear_velocity = Vector2(0, 0)
4:1/0/physics_layer_0/angular_velocity = 0.0
4:1/0/terrains_peering_bit/right_side = 0
4:1/0/terrains_peering_bit/bottom_side = 0
4:1/0/terrains_peering_bit/top_side = 0
4:1/0/terrains_peering_bit/top_right_corner = 0
5:1/0 = 0
5:1/0/terrain_set = 0
5:1/0/terrain = 0
5:1/0/physics_layer_0/linear_velocity = Vector2(0, 0)
5:1/0/physics_layer_0/angular_velocity = 0.0
5:1/0/terrains_peering_bit/right_side = 0
5:1/0/terrains_peering_bit/bottom_side = 0
5:1/0/terrains_peering_bit/bottom_left_corner = 0
5:1/0/terrains_peering_bit/left_side = 0
5:1/0/terrains_peering_bit/top_left_corner = 0
5:1/0/terrains_peering_bit/top_side = 0
5:1/0/terrains_peering_bit/top_right_corner = 0
5:2/0 = 0
5:2/0/terrain_set = 0
5:2/0/terrain = 0
5:2/0/physics_layer_0/linear_velocity = Vector2(0, 0)
5:2/0/physics_layer_0/angular_velocity = 0.0
5:2/0/terrains_peering_bit/right_side = 0
5:2/0/terrains_peering_bit/bottom_right_corner = 0
5:2/0/terrains_peering_bit/bottom_side = 0
5:2/0/terrains_peering_bit/bottom_left_corner = 0
5:2/0/terrains_peering_bit/left_side = 0
5:2/0/terrains_peering_bit/top_left_corner = 0
5:2/0/terrains_peering_bit/top_side = 0
5:3/0 = 0
5:3/0/terrain_set = 0
5:3/0/terrain = 0
5:3/0/physics_layer_0/linear_velocity = Vector2(0, 0)
5:3/0/physics_layer_0/angular_velocity = 0.0
5:3/0/terrains_peering_bit/right_side = 0
5:3/0/terrains_peering_bit/left_side = 0
5:3/0/terrains_peering_bit/top_left_corner = 0
5:3/0/terrains_peering_bit/top_side = 0
6:2/0 = 0
6:2/0/terrain_set = 0
6:2/0/terrain = 0
6:2/0/physics_layer_0/linear_velocity = Vector2(0, 0)
6:2/0/physics_layer_0/angular_velocity = 0.0
6:2/0/terrains_peering_bit/right_side = 0
6:2/0/terrains_peering_bit/bottom_right_corner = 0
6:2/0/terrains_peering_bit/bottom_side = 0
6:2/0/terrains_peering_bit/bottom_left_corner = 0
6:2/0/terrains_peering_bit/left_side = 0
6:2/0/terrains_peering_bit/top_side = 0
6:2/0/terrains_peering_bit/top_right_corner = 0
6:1/0 = 0
6:1/0/terrain_set = 0
6:1/0/terrain = 0
6:1/0/physics_layer_0/linear_velocity = Vector2(0, 0)
6:1/0/physics_layer_0/angular_velocity = 0.0
6:1/0/terrains_peering_bit/right_side = 0
6:1/0/terrains_peering_bit/bottom_right_corner = 0
6:1/0/terrains_peering_bit/bottom_side = 0
6:1/0/terrains_peering_bit/left_side = 0
6:1/0/terrains_peering_bit/top_left_corner = 0
6:1/0/terrains_peering_bit/top_side = 0
6:1/0/terrains_peering_bit/top_right_corner = 0
3:1/0 = 0
3:1/0/terrain_set = 0
3:1/0/terrain = 0
3:1/0/physics_layer_0/linear_velocity = Vector2(0, 0)
3:1/0/physics_layer_0/angular_velocity = 0.0
3:1/0/terrains_peering_bit/bottom_side = 0
3:1/0/terrains_peering_bit/top_side = 0
2:1/0 = 0
2:1/0/terrain_set = 0
2:1/0/terrain = 0
2:1/0/physics_layer_0/linear_velocity = Vector2(0, 0)
2:1/0/physics_layer_0/angular_velocity = 0.0
2:1/0/terrains_peering_bit/bottom_side = 0
2:1/0/terrains_peering_bit/bottom_left_corner = 0
2:1/0/terrains_peering_bit/left_side = 0
2:1/0/terrains_peering_bit/top_left_corner = 0
2:1/0/terrains_peering_bit/top_side = 0
1:1/0 = 0
1:1/0/terrain_set = 0
1:1/0/terrain = 0
1:1/0/physics_layer_0/linear_velocity = Vector2(0, 0)
1:1/0/physics_layer_0/angular_velocity = 0.0
1:1/0/terrains_peering_bit/right_side = 0
1:1/0/terrains_peering_bit/bottom_right_corner = 0
1:1/0/terrains_peering_bit/bottom_side = 0
1:1/0/terrains_peering_bit/bottom_left_corner = 0
1:1/0/terrains_peering_bit/left_side = 0
1:1/0/terrains_peering_bit/top_left_corner = 0
1:1/0/terrains_peering_bit/top_side = 0
1:1/0/terrains_peering_bit/top_right_corner = 0
0:1/0 = 0
0:1/0/terrain_set = 0
0:1/0/terrain = 0
0:1/0/physics_layer_0/linear_velocity = Vector2(0, 0)
0:1/0/physics_layer_0/angular_velocity = 0.0
0:1/0/terrains_peering_bit/right_side = 0
0:1/0/terrains_peering_bit/bottom_right_corner = 0
0:1/0/terrains_peering_bit/bottom_side = 0
0:1/0/terrains_peering_bit/top_side = 0
0:1/0/terrains_peering_bit/top_right_corner = 0
0:2/0 = 0
0:2/0/terrain_set = 0
0:2/0/terrain = 0
0:2/0/physics_layer_0/linear_velocity = Vector2(0, 0)
0:2/0/physics_layer_0/angular_velocity = 0.0
0:2/0/terrains_peering_bit/right_side = 0
0:2/0/terrains_peering_bit/top_side = 0
0:2/0/terrains_peering_bit/top_right_corner = 0
0:3/0 = 0
0:3/0/terrain_set = 0
0:3/0/terrain = 0
0:3/0/physics_layer_0/linear_velocity = Vector2(0, 0)
0:3/0/physics_layer_0/angular_velocity = 0.0
0:3/0/terrains_peering_bit/right_side = 0
1:3/0 = 0
1:3/0/terrain_set = 0
1:3/0/terrain = 0
1:3/0/physics_layer_0/linear_velocity = Vector2(0, 0)
1:3/0/physics_layer_0/angular_velocity = 0.0
1:3/0/terrains_peering_bit/right_side = 0
1:3/0/terrains_peering_bit/left_side = 0
2:3/0 = 0
2:3/0/terrain_set = 0
2:3/0/terrain = 0
2:3/0/physics_layer_0/linear_velocity = Vector2(0, 0)
2:3/0/physics_layer_0/angular_velocity = 0.0
2:3/0/terrains_peering_bit/left_side = 0
2:2/0 = 0
2:2/0/terrain_set = 0
2:2/0/terrain = 0
2:2/0/physics_layer_0/linear_velocity = Vector2(0, 0)
2:2/0/physics_layer_0/angular_velocity = 0.0
2:2/0/terrains_peering_bit/left_side = 0
2:2/0/terrains_peering_bit/top_left_corner = 0
2:2/0/terrains_peering_bit/top_side = 0
1:2/0 = 0
1:2/0/terrain_set = 0
1:2/0/terrain = 0
1:2/0/physics_layer_0/linear_velocity = Vector2(0, 0)
1:2/0/physics_layer_0/angular_velocity = 0.0
1:2/0/terrains_peering_bit/right_side = 0
1:2/0/terrains_peering_bit/left_side = 0
1:2/0/terrains_peering_bit/top_left_corner = 0
1:2/0/terrains_peering_bit/top_side = 0
1:2/0/terrains_peering_bit/top_right_corner = 0
3:2/0 = 0
3:2/0/terrain_set = 0
3:2/0/terrain = 0
3:2/0/physics_layer_0/linear_velocity = Vector2(0, 0)
3:2/0/physics_layer_0/angular_velocity = 0.0
3:2/0/terrains_peering_bit/top_side = 0
3:3/0 = 0
3:3/0/terrain_set = 0
3:3/0/terrain = 0
3:3/0/physics_layer_0/linear_velocity = Vector2(0, 0)
3:3/0/physics_layer_0/angular_velocity = 0.0

[resource]
tile_size = Vector2i(12, 12)
physics_layer_0/collision_layer = 1
terrain_set_0/mode = 0
terrain_set_0/terrain_0/name = "TerrainLines"
terrain_set_0/terrain_0/color = Color(0.701961, 0, 0.364706, 1)
sources/0 = SubResource("TileSetAtlasSource_8liv6")
sources/2 = SubResource("TileSetAtlasSource_aid36")
