[gd_scene load_steps=10 format=3 uid="uid://cjljlt6patikj"]

[ext_resource type="PackedScene" uid="uid://4tpcw1tlno6q" path="res://scenes/interface/control_counter.tscn" id="1_cc4cg"]
[ext_resource type="FontFile" uid="uid://bbnobed8qta8j" path="res://assets/fonts/editundo.ttf" id="2_7756v"]
[ext_resource type="PackedScene" uid="uid://d2kv4bcp7hp5o" path="res://scenes/interface/control_mobile_controller.tscn" id="2_ka3ip"]
[ext_resource type="PackedScene" uid="uid://c8jwasblsyelf" path="res://scenes/prefabs/tilemap_levels.tscn" id="3_ncxyp"]
[ext_resource type="PackedScene" uid="uid://c15qppjj06vr5" path="res://scenes/prefabs/character_jar.tscn" id="4_43bjy"]
[ext_resource type="PackedScene" uid="uid://b1538i2dapt6t" path="res://scenes/prefabs/area_lose.tscn" id="5_ckg8i"]
[ext_resource type="PackedScene" uid="uid://bdkt6ykymaua1" path="res://scenes/prefabs/area_win.tscn" id="6_7wy11"]
[ext_resource type="PackedScene" uid="uid://rjh2jnqja3fl" path="res://scenes/prefabs/area_pusher.tscn" id="7_35ces"]

[sub_resource type="LabelSettings" id="LabelSettings_86dvk"]
font = ExtResource("2_7756v")
font_size = 21

[node name="LevelTrollhole" type="Node2D"]

[node name="CanvasBackground" type="CanvasLayer" parent="."]
layer = -8

[node name="RectBackground" type="ColorRect" parent="CanvasBackground"]
anchors_preset = 15
anchor_right = 1.0
anchor_bottom = 1.0
grow_horizontal = 2
grow_vertical = 2
color = Color(0.956863, 0.54902, 0.713726, 1)
metadata/_edit_lock_ = true

[node name="CanvasForeground" type="CanvasLayer" parent="."]
layer = 7

[node name="ControlCounter" parent="CanvasForeground" instance=ExtResource("1_cc4cg")]
metadata/_edit_lock_ = true

[node name="ControlMobileController" parent="CanvasForeground" instance=ExtResource("2_ka3ip")]

[node name="Objects" type="Node2D" parent="."]

[node name="Label" type="Label" parent="Objects"]
offset_left = 18.0
offset_top = 78.0
offset_right = 117.0
offset_bottom = 101.0
text = "trollhole"
label_settings = SubResource("LabelSettings_86dvk")

[node name="TilemapLevels" parent="Objects" instance=ExtResource("3_ncxyp")]
layer_0/tile_data = PackedInt32Array(655352, 65536, 0, 655351, 65536, 0, 655350, 65536, 0, 655349, 65536, 0, 655348, 65536, 0, 655347, 65536, 0, 655346, 65536, 0, 655345, 65536, 0, 655353, 65536, 0, 655354, 65536, 0, 655355, 65536, 0, 655356, 65536, 0, 655357, 65536, 0, 655358, 65536, 0, 655359, 65536, 0, 589824, 65536, 0, 589825, 65536, 0, 589826, 65536, 0, 589827, 65536, 0, 589828, 65536, 0, 589829, 65536, 0, 589838, 65536, 0, 589837, 65536, 0, 589836, 65536, 0, 589835, 65536, 0, 589834, 65536, 0, 589833, 65536, 0, 589832, 65536, 0, 589831, 65536, 0, 589830, 65536, 0, -65551, 65536, 0, -65550, 65536, 0, -65549, 65536, 0, -65548, 65536, 0, -65547, 65536, 0, -65546, 65536, 0, -65542, 65536, 0, -65541, 65536, 0, -65540, 65536, 0, -65539, 65536, 0, -65538, 65536, 0, -65537, 65536, 0, -131072, 65536, 0, -131071, 65536, 0, -131070, 65536, 0, -131069, 65536, 0, -131068, 65536, 0, -131067, 65536, 0, -131066, 65536, 0, -131065, 65536, 0, -131064, 65536, 0, -131063, 65536, 0, -131062, 65536, 0, -131061, 65536, 0, -131060, 65536, 0, -131059, 65536, 0, -131058, 65536, 0, 262158, 65536, 0, 327670, 65536, 0, 327669, 65536, 0, 327668, 65536, 0, 327667, 65536, 0, 327666, 65536, 0, 327665, 65536, 0, 262157, 65536, 0, 262156, 65536, 0, 262155, 65536, 0, 262154, 65536, 0, 262153, 65536, 0, 262152, 65536, 0, 262151, 65536, 0, 262150, 65536, 0, 262149, 65536, 0, 262148, 65536, 0, 262147, 65536, 0, 262146, 65536, 0, 262145, 65536, 0, 262144, 65536, 0, 327679, 65536, 0, 327678, 65536, 0, 327677, 65536, 0, 327676, 65536, 0, 327675, 65536, 0, 327674, 65536, 0, 327673, 65536, 0, 393209, 65536, 0, 458745, 65536, 0, -65545, 65536, 0, 196608, 327680, 0, 131072, 327680, 0, 65536, 327680, 0, 0, 327680, 0, 1, 327680, 0, 2, 327680, 0, 3, 327680, 0, -65533, 327680, 0, 65534, 327680, 0, 131070, 327680, 0, 196606, 327680, 0, 131069, 327680, 0, 131068, 327680, 0, 131067, 327680, 0, 65531, 327680, 0, -5, 327680, 0, 196603, 327680, 0, 262139, 327680, 0, 4, 327680, 0, 5, 327680, 0, 6, 327680, 0, 65542, 327680, 0, 131078, 327680, 0, 196614, 327680, 0, 131076, 327680, 0, 131075, 327680, 0, 131074, 327680, 0, 7, 327680, 0, 8, 327680, 0, 9, 327680, 0, 10, 327680, 0, 11, 327680, 0, 65547, 327680, 0, 131083, 327680, 0, 196619, 327680, 0, 12, 327680, 0, 13, 327680, 0, -65523, 327680, 0, 65521, 327680, 0, 65522, 327680, 0, 65523, 327680, 0, 65524, 327680, 0, 65525, 327680, 0, -11, 327680, 0, 131058, 327680, 0, 196594, 327680, 0, 262130, 327680, 0, 131060, 327680, 0, 196596, 327680, 0, 262132, 327680, 0, 196597, 327680, 0)
layer_1/tile_data = PackedInt32Array(327665, 2, 3, 327666, 524290, 3, 327667, 65538, 3, 327668, 524290, 3, 327669, 65538, 3, 327670, 131074, 3, -65545, 131074, 3, -65546, 65538, 3, -65547, 524290, 0, -65548, 65538, 3, -65549, 65538, 3, -65550, 65538, 3, -65551, 2, 3, 655345, 2, 3, 655346, 65538, 3, 655347, 65538, 3, 655348, 65538, 3, 655349, 65538, 3, 655350, 65538, 3, 655351, 65538, 3, 655352, 65538, 3, 655353, 65538, 3, 655354, 65538, 3, 655355, 65538, 3, 655356, 65538, 3, 589827, 65538, 3, 589826, 65538, 3, 589825, 65538, 3, 589824, 65538, 3, 655359, 65538, 3, 655358, 65538, 3, 655357, 65538, 3, 589838, 131074, 3, 589837, 65538, 3, 589836, 65538, 3, 589835, 65538, 3, 589834, 65538, 3, 589833, 65538, 3, 589832, 65538, 3, 589831, 65538, 3, 589830, 65538, 3, 589829, 65538, 3, 589828, 65538, 3, 262158, 131074, 3, 262157, 65538, 3, 262156, 65538, 3, 262155, 524290, 3, 262154, 65538, 3, 262153, 65538, 3, 262152, 65538, 3, 262151, 65538, 3, 262150, 524290, 3, 262149, 65538, 3, 262148, 65538, 3, 262147, 65538, 3, 262146, 65538, 3, 262145, 65538, 3, 262144, 524290, 3, 327679, 65538, 3, 327678, 65538, 3, 327677, 65538, 3, 327676, 65538, 3, 327675, 524290, 3, 327674, 65538, 3, 327673, 262146, 0, 458745, 196610, 2, 393209, 196610, 1, -131058, 131074, 3, -131059, 524290, 0, -131060, 65538, 3, -131061, 65538, 3, -131062, 65538, 3, -131063, 65538, 3, -131064, 65538, 3, -131065, 65538, 3, -131066, 65538, 3, -131067, 65538, 3, -131068, 65538, 3, -131069, 524290, 0, -131070, 65538, 3, -131071, 65538, 3, -131072, 65538, 3, -65537, 65538, 3, -65538, 65538, 3, -65539, 65538, 3, -65540, 65538, 3, -65541, 524290, 0, -65542, 2, 3, 13, 458754, 3, -65523, 196610, 1, 12, 65538, 3, 11, 524290, 0, 196619, 196610, 1, 131083, 196610, 1, 65547, 196610, 1, 10, 65538, 3, 9, 65538, 3, 8, 65538, 3, 7, 65538, 3, 6, 524290, 0, 5, 65538, 3, 4, 65538, 3, 3, 524290, 3, 2, 65538, 3, 1, 65538, 3, 0, 262146, 0, -65533, 196610, 1, 196608, 196610, 1, 131072, 196610, 1, 65536, 196610, 1, 196614, 196610, 1, 131078, 196610, 1, 65542, 196610, 1, 196603, 196610, 1, 131067, 262146, 4, 65531, 196610, 1, -5, 196610, 1, 131069, 65538, 3, 131068, 65538, 3, 196606, 196610, 2, 131070, 458754, 4, 65534, 196610, 0, 65525, 458754, 3, -11, 196610, 1, 65524, 524290, 0, 65523, 65538, 3, 65522, 524290, 0, 65521, 2, 3, 262130, 196610, 1, 196594, 196610, 1, 131058, 196610, 1, 262132, 196610, 1, 196596, 262146, 4, 131060, 196610, 1, 196597, 131074, 3, 262139, 196610, 1, 131076, 131074, 3, 131075, 65538, 3, 131074, 2, 3)

[node name="CharacterJar" parent="Objects" instance=ExtResource("4_43bjy")]
position = Vector2(132, 96)
mass = 1.8
inertia = 0.0

[node name="Camera" type="Camera2D" parent="Objects/CharacterJar"]
zoom = Vector2(4, 4)
limit_left = -180
limit_top = -60
limit_right = 180
limit_bottom = 120
position_smoothing_enabled = true
editor_draw_limits = true
metadata/_edit_lock_ = true

[node name="Areas" type="Node2D" parent="Objects"]

[node name="AreaWin" parent="Objects/Areas" instance=ExtResource("6_7wy11")]
position = Vector2(-174, -54)

[node name="AreaWin2" parent="Objects/Areas" instance=ExtResource("6_7wy11")]
position = Vector2(-162, -54)

[node name="AreaWin3" parent="Objects/Areas" instance=ExtResource("6_7wy11")]
position = Vector2(-150, -54)

[node name="AreaWin4" parent="Objects/Areas" instance=ExtResource("6_7wy11")]
position = Vector2(-138, -54)

[node name="AreaWin5" parent="Objects/Areas" instance=ExtResource("6_7wy11")]
position = Vector2(-126, -54)

[node name="AreaWin6" parent="Objects/Areas" instance=ExtResource("6_7wy11")]
position = Vector2(-114, -54)

[node name="AreaWin7" parent="Objects/Areas" instance=ExtResource("6_7wy11")]
position = Vector2(-102, -54)

[node name="AreaWin8" parent="Objects/Areas" instance=ExtResource("6_7wy11")]
position = Vector2(-90, -54)

[node name="AreaWin9" parent="Objects/Areas" instance=ExtResource("6_7wy11")]
position = Vector2(-78, -54)

[node name="AreaWin10" parent="Objects/Areas" instance=ExtResource("6_7wy11")]
position = Vector2(-66, -54)

[node name="AreaWin11" parent="Objects/Areas" instance=ExtResource("6_7wy11")]
position = Vector2(-54, -54)

[node name="AreaWin12" parent="Objects/Areas" instance=ExtResource("6_7wy11")]
position = Vector2(-42, -54)

[node name="AreaWin13" parent="Objects/Areas" instance=ExtResource("6_7wy11")]
position = Vector2(-30, -54)

[node name="AreaWin14" parent="Objects/Areas" instance=ExtResource("6_7wy11")]
position = Vector2(-18, -54)

[node name="AreaWin15" parent="Objects/Areas" instance=ExtResource("6_7wy11")]
position = Vector2(-6, -54)

[node name="AreaWin16" parent="Objects/Areas" instance=ExtResource("6_7wy11")]
position = Vector2(6, -54)

[node name="AreaWin17" parent="Objects/Areas" instance=ExtResource("6_7wy11")]
position = Vector2(18, -54)

[node name="AreaWin18" parent="Objects/Areas" instance=ExtResource("6_7wy11")]
position = Vector2(30, -54)

[node name="AreaWin19" parent="Objects/Areas" instance=ExtResource("6_7wy11")]
position = Vector2(42, -54)

[node name="AreaWin20" parent="Objects/Areas" instance=ExtResource("6_7wy11")]
position = Vector2(54, -54)

[node name="AreaWin21" parent="Objects/Areas" instance=ExtResource("6_7wy11")]
position = Vector2(66, -54)

[node name="AreaWin22" parent="Objects/Areas" instance=ExtResource("6_7wy11")]
position = Vector2(78, -54)

[node name="AreaWin23" parent="Objects/Areas" instance=ExtResource("6_7wy11")]
position = Vector2(90, -54)

[node name="AreaWin24" parent="Objects/Areas" instance=ExtResource("6_7wy11")]
position = Vector2(102, -54)

[node name="AreaWin25" parent="Objects/Areas" instance=ExtResource("6_7wy11")]
position = Vector2(114, -54)

[node name="AreaWin26" parent="Objects/Areas" instance=ExtResource("6_7wy11")]
position = Vector2(126, -54)

[node name="AreaWin27" parent="Objects/Areas" instance=ExtResource("6_7wy11")]
position = Vector2(138, -54)

[node name="AreaWin28" parent="Objects/Areas" instance=ExtResource("6_7wy11")]
position = Vector2(150, -54)

[node name="AreaWin29" parent="Objects/Areas" instance=ExtResource("6_7wy11")]
position = Vector2(162, -54)

[node name="AreaWin30" parent="Objects/Areas" instance=ExtResource("6_7wy11")]
position = Vector2(174, -54)

[node name="AreaLose30" parent="Objects/Areas" instance=ExtResource("5_ckg8i")]
position = Vector2(-174, 66)

[node name="AreaLose31" parent="Objects/Areas" instance=ExtResource("5_ckg8i")]
position = Vector2(-162, 66)

[node name="AreaLose32" parent="Objects/Areas" instance=ExtResource("5_ckg8i")]
position = Vector2(-150, 66)

[node name="AreaLose33" parent="Objects/Areas" instance=ExtResource("5_ckg8i")]
position = Vector2(-138, 66)

[node name="AreaLose34" parent="Objects/Areas" instance=ExtResource("5_ckg8i")]
position = Vector2(-126, 66)

[node name="AreaLose35" parent="Objects/Areas" instance=ExtResource("5_ckg8i")]
position = Vector2(-114, 66)

[node name="AreaLose38" parent="Objects/Areas" instance=ExtResource("5_ckg8i")]
position = Vector2(-114, 42)

[node name="AreaLose39" parent="Objects/Areas" instance=ExtResource("5_ckg8i")]
position = Vector2(-126, 42)

[node name="AreaLose41" parent="Objects/Areas" instance=ExtResource("5_ckg8i")]
position = Vector2(-150, 42)

[node name="AreaLose43" parent="Objects/Areas" instance=ExtResource("5_ckg8i")]
position = Vector2(-174, 42)

[node name="AreaLose46" parent="Objects/Areas" instance=ExtResource("5_ckg8i")]
position = Vector2(-66, 66)

[node name="AreaLose47" parent="Objects/Areas" instance=ExtResource("5_ckg8i")]
position = Vector2(-66, 42)

[node name="AreaLose49" parent="Objects/Areas" instance=ExtResource("5_ckg8i")]
position = Vector2(-54, 66)

[node name="AreaLose50" parent="Objects/Areas" instance=ExtResource("5_ckg8i")]
position = Vector2(-42, 66)

[node name="AreaLose51" parent="Objects/Areas" instance=ExtResource("5_ckg8i")]
position = Vector2(-30, 66)

[node name="AreaLose52" parent="Objects/Areas" instance=ExtResource("5_ckg8i")]
position = Vector2(-18, 66)

[node name="AreaLose53" parent="Objects/Areas" instance=ExtResource("5_ckg8i")]
position = Vector2(-42, 42)

[node name="AreaLose54" parent="Objects/Areas" instance=ExtResource("5_ckg8i")]
position = Vector2(-30, 42)

[node name="AreaLose55" parent="Objects/Areas" instance=ExtResource("5_ckg8i")]
position = Vector2(-18, 42)

[node name="AreaLose56" parent="Objects/Areas" instance=ExtResource("5_ckg8i")]
position = Vector2(-6, 42)

[node name="AreaLose58" parent="Objects/Areas" instance=ExtResource("5_ckg8i")]
position = Vector2(18, 42)

[node name="AreaLose59" parent="Objects/Areas" instance=ExtResource("5_ckg8i")]
position = Vector2(-6, 66)

[node name="AreaLose60" parent="Objects/Areas" instance=ExtResource("5_ckg8i")]
position = Vector2(6, 66)

[node name="AreaLose61" parent="Objects/Areas" instance=ExtResource("5_ckg8i")]
position = Vector2(18, 66)

[node name="AreaLose62" parent="Objects/Areas" instance=ExtResource("5_ckg8i")]
position = Vector2(30, 66)

[node name="AreaLose63" parent="Objects/Areas" instance=ExtResource("5_ckg8i")]
position = Vector2(42, 66)

[node name="AreaLose64" parent="Objects/Areas" instance=ExtResource("5_ckg8i")]
position = Vector2(54, 66)

[node name="AreaLose65" parent="Objects/Areas" instance=ExtResource("5_ckg8i")]
position = Vector2(30, 42)

[node name="AreaLose66" parent="Objects/Areas" instance=ExtResource("5_ckg8i")]
position = Vector2(42, 42)

[node name="AreaLose67" parent="Objects/Areas" instance=ExtResource("5_ckg8i")]
position = Vector2(54, 42)

[node name="AreaLose68" parent="Objects/Areas" instance=ExtResource("5_ckg8i")]
position = Vector2(66, 42)

[node name="AreaLose70" parent="Objects/Areas" instance=ExtResource("5_ckg8i")]
position = Vector2(90, 42)

[node name="AreaLose71" parent="Objects/Areas" instance=ExtResource("5_ckg8i")]
position = Vector2(66, 66)

[node name="AreaLose72" parent="Objects/Areas" instance=ExtResource("5_ckg8i")]
position = Vector2(78, 66)

[node name="AreaLose73" parent="Objects/Areas" instance=ExtResource("5_ckg8i")]
position = Vector2(90, 66)

[node name="AreaLose74" parent="Objects/Areas" instance=ExtResource("5_ckg8i")]
position = Vector2(102, 66)

[node name="AreaLose75" parent="Objects/Areas" instance=ExtResource("5_ckg8i")]
position = Vector2(114, 66)

[node name="AreaLose76" parent="Objects/Areas" instance=ExtResource("5_ckg8i")]
position = Vector2(126, 66)

[node name="AreaLose77" parent="Objects/Areas" instance=ExtResource("5_ckg8i")]
position = Vector2(102, 42)

[node name="AreaLose78" parent="Objects/Areas" instance=ExtResource("5_ckg8i")]
position = Vector2(114, 42)

[node name="AreaLose79" parent="Objects/Areas" instance=ExtResource("5_ckg8i")]
position = Vector2(126, 42)

[node name="AreaLose81" parent="Objects/Areas" instance=ExtResource("5_ckg8i")]
position = Vector2(150, 42)

[node name="AreaLose82" parent="Objects/Areas" instance=ExtResource("5_ckg8i")]
position = Vector2(162, 42)

[node name="AreaLose83" parent="Objects/Areas" instance=ExtResource("5_ckg8i")]
position = Vector2(138, 66)

[node name="AreaLose84" parent="Objects/Areas" instance=ExtResource("5_ckg8i")]
position = Vector2(150, 66)

[node name="AreaLose85" parent="Objects/Areas" instance=ExtResource("5_ckg8i")]
position = Vector2(162, 66)

[node name="AreaLose86" parent="Objects/Areas" instance=ExtResource("5_ckg8i")]
position = Vector2(174, 66)

[node name="AreaLose87" parent="Objects/Areas" instance=ExtResource("5_ckg8i")]
position = Vector2(174, 42)

[node name="AreaLose88" parent="Objects/Areas" instance=ExtResource("5_ckg8i")]
position = Vector2(186, 30)
scale = Vector2(1, 15)

[node name="AreaLose89" parent="Objects/Areas" instance=ExtResource("5_ckg8i")]
position = Vector2(-186, 30)
scale = Vector2(1, 15)

[node name="AreaLose90" parent="Objects/Areas" instance=ExtResource("5_ckg8i")]
position = Vector2(0, -66)
scale = Vector2(32, 1)

[node name="AreaLose94" parent="Objects/Areas" instance=ExtResource("5_ckg8i")]
position = Vector2(-186, 30)
scale = Vector2(1, 15)

[node name="AreaLose95" parent="Objects/Areas" instance=ExtResource("5_ckg8i")]
position = Vector2(0, -66)
scale = Vector2(32, 1)

[node name="AreaLose91" parent="Objects/Areas" instance=ExtResource("5_ckg8i")]
position = Vector2(0, 126)
scale = Vector2(32, 1)

[node name="AreaLose4" parent="Objects/Areas" instance=ExtResource("5_ckg8i")]
position = Vector2(-114, -6)

[node name="AreaLose6" parent="Objects/Areas" instance=ExtResource("5_ckg8i")]
position = Vector2(-138, -6)

[node name="AreaLose7" parent="Objects/Areas" instance=ExtResource("5_ckg8i")]
position = Vector2(-150, -6)

[node name="AreaLose93" parent="Objects/Areas" instance=ExtResource("5_ckg8i")]
position = Vector2(-66, -6)

[node name="AreaLose105" parent="Objects/Areas" instance=ExtResource("5_ckg8i")]
position = Vector2(-114, 6)

[node name="AreaLose106" parent="Objects/Areas" instance=ExtResource("5_ckg8i")]
position = Vector2(-114, 18)

[node name="AreaLose107" parent="Objects/Areas" instance=ExtResource("5_ckg8i")]
position = Vector2(-126, 18)

[node name="AreaLose109" parent="Objects/Areas" instance=ExtResource("5_ckg8i")]
position = Vector2(-150, 18)

[node name="AreaLose111" parent="Objects/Areas" instance=ExtResource("5_ckg8i")]
position = Vector2(-174, 18)

[node name="AreaLose112" parent="Objects/Areas" instance=ExtResource("5_ckg8i")]
position = Vector2(-174, 30)

[node name="AreaLose114" parent="Objects/Areas" instance=ExtResource("5_ckg8i")]
position = Vector2(-150, 30)

[node name="AreaLose117" parent="Objects/Areas" instance=ExtResource("5_ckg8i")]
position = Vector2(-114, 30)

[node name="AreaLose118" parent="Objects/Areas" instance=ExtResource("5_ckg8i")]
position = Vector2(-66, 6)

[node name="AreaLose121" parent="Objects/Areas" instance=ExtResource("5_ckg8i")]
position = Vector2(-66, 18)

[node name="AreaLose122" parent="Objects/Areas" instance=ExtResource("5_ckg8i")]
position = Vector2(-66, 30)

[node name="AreaLose124" parent="Objects/Areas" instance=ExtResource("5_ckg8i")]
position = Vector2(-42, 6)

[node name="AreaLose125" parent="Objects/Areas" instance=ExtResource("5_ckg8i")]
position = Vector2(-30, 6)

[node name="AreaLose128" parent="Objects/Areas" instance=ExtResource("5_ckg8i")]
position = Vector2(-42, 30)

[node name="AreaLose129" parent="Objects/Areas" instance=ExtResource("5_ckg8i")]
position = Vector2(-30, 30)

[node name="AreaLose131" parent="Objects/Areas" instance=ExtResource("5_ckg8i")]
position = Vector2(-6, 6)

[node name="AreaLose132" parent="Objects/Areas" instance=ExtResource("5_ckg8i")]
position = Vector2(-6, 18)

[node name="AreaLose135" parent="Objects/Areas" instance=ExtResource("5_ckg8i")]
position = Vector2(-6, 30)

[node name="AreaLose138" parent="Objects/Areas" instance=ExtResource("5_ckg8i")]
position = Vector2(18, 18)

[node name="AreaLose141" parent="Objects/Areas" instance=ExtResource("5_ckg8i")]
position = Vector2(18, 30)

[node name="AreaLose144" parent="Objects/Areas" instance=ExtResource("5_ckg8i")]
position = Vector2(42, 18)

[node name="AreaLose145" parent="Objects/Areas" instance=ExtResource("5_ckg8i")]
position = Vector2(30, 18)

[node name="AreaLose150" parent="Objects/Areas" instance=ExtResource("5_ckg8i")]
position = Vector2(66, 18)

[node name="AreaLose151" parent="Objects/Areas" instance=ExtResource("5_ckg8i")]
position = Vector2(54, 18)

[node name="AreaLose153" parent="Objects/Areas" instance=ExtResource("5_ckg8i")]
position = Vector2(66, 30)

[node name="AreaLose156" parent="Objects/Areas" instance=ExtResource("5_ckg8i")]
position = Vector2(90, 18)

[node name="AreaLose159" parent="Objects/Areas" instance=ExtResource("5_ckg8i")]
position = Vector2(90, 30)

[node name="AreaLose162" parent="Objects/Areas" instance=ExtResource("5_ckg8i")]
position = Vector2(114, 18)

[node name="AreaLose163" parent="Objects/Areas" instance=ExtResource("5_ckg8i")]
position = Vector2(102, 18)

[node name="AreaLose164" parent="Objects/Areas" instance=ExtResource("5_ckg8i")]
position = Vector2(102, 30)

[node name="AreaLose165" parent="Objects/Areas" instance=ExtResource("5_ckg8i")]
position = Vector2(114, 30)

[node name="AreaLose169" parent="Objects/Areas" instance=ExtResource("5_ckg8i")]
position = Vector2(126, 18)

[node name="AreaLose170" parent="Objects/Areas" instance=ExtResource("5_ckg8i")]
position = Vector2(126, 30)

[node name="AreaPusher" parent="Objects/Areas" instance=ExtResource("7_35ces")]
position = Vector2(-78, 90)
push_direction = 4

[node name="AreaPusher2" parent="Objects/Areas" instance=ExtResource("7_35ces")]
position = Vector2(-78, 102)
push_direction = 4

[node name="AreaLose174" parent="Objects/Areas" instance=ExtResource("5_ckg8i")]
position = Vector2(162, 18)

[node name="AreaLose175" parent="Objects/Areas" instance=ExtResource("5_ckg8i")]
position = Vector2(150, 18)

[node name="AreaLose176" parent="Objects/Areas" instance=ExtResource("5_ckg8i")]
position = Vector2(150, 30)

[node name="AreaLose177" parent="Objects/Areas" instance=ExtResource("5_ckg8i")]
position = Vector2(162, 30)

[node name="AreaLose178" parent="Objects/Areas" instance=ExtResource("5_ckg8i")]
position = Vector2(174, 6)

[node name="AreaLose179" parent="Objects/Areas" instance=ExtResource("5_ckg8i")]
position = Vector2(174, 18)

[node name="AreaLose180" parent="Objects/Areas" instance=ExtResource("5_ckg8i")]
position = Vector2(174, 30)

[node name="AreaLose8" parent="Objects/Areas" instance=ExtResource("5_ckg8i")]
position = Vector2(-162, -6)

[node name="AreaLose9" parent="Objects/Areas" instance=ExtResource("5_ckg8i")]
position = Vector2(-174, -6)

[node name="AreaLose11" parent="Objects/Areas" instance=ExtResource("5_ckg8i")]
position = Vector2(-42, -6)

[node name="AreaLose12" parent="Objects/Areas" instance=ExtResource("5_ckg8i")]
position = Vector2(-30, -6)

[node name="AreaLose13" parent="Objects/Areas" instance=ExtResource("5_ckg8i")]
position = Vector2(-18, -6)

[node name="AreaLose14" parent="Objects/Areas" instance=ExtResource("5_ckg8i")]
position = Vector2(-6, -6)

[node name="AreaLose15" parent="Objects/Areas" instance=ExtResource("5_ckg8i")]
position = Vector2(6, -6)

[node name="AreaLose16" parent="Objects/Areas" instance=ExtResource("5_ckg8i")]
position = Vector2(18, -6)

[node name="AreaLose17" parent="Objects/Areas" instance=ExtResource("5_ckg8i")]
position = Vector2(30, -6)

[node name="AreaLose19" parent="Objects/Areas" instance=ExtResource("5_ckg8i")]
position = Vector2(54, -6)

[node name="AreaLose20" parent="Objects/Areas" instance=ExtResource("5_ckg8i")]
position = Vector2(66, -6)

[node name="AreaLose21" parent="Objects/Areas" instance=ExtResource("5_ckg8i")]
position = Vector2(78, -6)

[node name="AreaLose22" parent="Objects/Areas" instance=ExtResource("5_ckg8i")]
position = Vector2(90, -6)

[node name="AreaLose23" parent="Objects/Areas" instance=ExtResource("5_ckg8i")]
position = Vector2(102, -6)

[node name="AreaLose24" parent="Objects/Areas" instance=ExtResource("5_ckg8i")]
position = Vector2(114, -6)

[node name="AreaLose25" parent="Objects/Areas" instance=ExtResource("5_ckg8i")]
position = Vector2(126, -6)

[node name="AreaLose26" parent="Objects/Areas" instance=ExtResource("5_ckg8i")]
position = Vector2(138, -6)

[node name="AreaLose27" parent="Objects/Areas" instance=ExtResource("5_ckg8i")]
position = Vector2(150, -6)

[node name="AreaLose29" parent="Objects/Areas" instance=ExtResource("5_ckg8i")]
position = Vector2(174, -6)
