[gd_scene load_steps=10 format=3 uid="uid://bqcasr3vryyxs"]

[ext_resource type="PackedScene" uid="uid://4tpcw1tlno6q" path="res://scenes/interface/control_counter.tscn" id="1_pr6xy"]
[ext_resource type="FontFile" uid="uid://bbnobed8qta8j" path="res://assets/fonts/editundo.ttf" id="2_ihcc4"]
[ext_resource type="PackedScene" uid="uid://d2kv4bcp7hp5o" path="res://scenes/interface/control_mobile_controller.tscn" id="2_xlfgn"]
[ext_resource type="PackedScene" uid="uid://c8jwasblsyelf" path="res://scenes/prefabs/tilemap_levels.tscn" id="2_yqkpk"]
[ext_resource type="PackedScene" uid="uid://c15qppjj06vr5" path="res://scenes/prefabs/character_jar.tscn" id="3_pymjb"]
[ext_resource type="PackedScene" uid="uid://bdkt6ykymaua1" path="res://scenes/prefabs/area_win.tscn" id="4_o6788"]
[ext_resource type="PackedScene" uid="uid://b1538i2dapt6t" path="res://scenes/prefabs/area_lose.tscn" id="5_q22v8"]
[ext_resource type="PackedScene" uid="uid://rjh2jnqja3fl" path="res://scenes/prefabs/area_pusher.tscn" id="6_3jrjy"]

[sub_resource type="LabelSettings" id="LabelSettings_cr2lu"]
font = ExtResource("2_ihcc4")
font_size = 21

[node name="LevelPipedown" type="Node2D"]

[node name="CanvasBackground" type="CanvasLayer" parent="."]
layer = -8

[node name="RectBackground" type="ColorRect" parent="CanvasBackground"]
anchors_preset = 15
anchor_right = 1.0
anchor_bottom = 1.0
grow_horizontal = 2
grow_vertical = 2
color = Color(0.968627, 0.713726, 0.619608, 1)
metadata/_edit_lock_ = true

[node name="CanvasForeground" type="CanvasLayer" parent="."]
layer = 7

[node name="ControlCounter" parent="CanvasForeground" instance=ExtResource("1_pr6xy")]

[node name="ControlMobileController" parent="CanvasForeground" instance=ExtResource("2_xlfgn")]

[node name="Objects" type="Node2D" parent="."]

[node name="Label" type="Label" parent="Objects"]
offset_left = 114.0
offset_top = -84.0
offset_right = 199.0
offset_bottom = -61.0
text = "Pipedown"
label_settings = SubResource("LabelSettings_cr2lu")

[node name="TilemapLevels" parent="Objects" instance=ExtResource("2_yqkpk")]
layer_0/tile_data = PackedInt32Array(131069, 131072, 0, 131070, 131072, 0, 131071, 131072, 0, 65536, 196608, 0, 65537, 196608, 0, 65538, 196608, 0, 2, 196608, 0, -65534, 196608, 0, -65531, 196608, 0, -65530, 196608, 0, -65529, 196608, 0, -65528, 131072, 0, -65527, 131072, 0, 131078, 196608, 0, 131079, 131072, 0, 131080, 131072, 0, -65526, 131072, 0, -65525, 131072, 0, -65524, 131072, 0, -65523, 131072, 0, 393226, 196608, 0, 393225, 196608, 0, -65522, 131072, 0, 131086, 196608, 0, 196613, 131072, 0, 262149, 131072, 0, 327685, 131072, 0, 393221, 131072, 0, 458757, 131072, 0, 65550, 131072, 0, 14, 131072, 0, 393232, 131072, 0, 393231, 131072, 0, 393230, 196608, 0, 393229, 196608, 0, 131073, 131072, 0, 131072, 131072, 0, 196607, 131072, 0, 196606, 131072, 0, 196605, 131072, 0, -131061, 131072, 0, 196622, 196608, 0, 131068, 196608, 0, 131067, 196608, 0, 131066, 196608, 0, 196604, 131072, 0, 196603, 131072, 0, 262139, 131072, 0, 262138, 131072, 0, 327674, 131072, 0, 393210, 131072, 0, 196602, 131072, 0, 458746, 131072, 0, 524282, 131072, 0, 327675, 131072, 0, 393211, 131072, 0, 458747, 131072, 0, 524283, 131072, 0, 458768, 131072, 0, 458767, 131072, 0, 458766, 131072, 0, 458765, 131072, 0, 458762, 131072, 0, 458761, 131072, 0, -196597, 131072, 0, -65521, 131072, 0, -65520, 131072, 0, -327669, 131072, 0, -262133, 131072, 0, -524277, 131072, 0, -393208, 131072, 0, -327672, 131072, 0, -262136, 131072, 0, -196600, 131072, 0, -131064, 131072, 0, -524284, 131072, 0, -458748, 196608, 0, -393212, 196608, 0, -327676, 131072, 0, -262140, 131072, 0, -524286, 131072, 0, -524285, 131072, 0, -458749, 196608, 0, -458750, 196608, 0, -524287, 131072, 0, -524288, 131072, 0, -458753, 131072, 0, -458754, 131072, 0, -458755, 131072, 0, -458756, 131072, 0, -458757, 131072, 0, -393222, 131072, 0, -458758, 131072, 0, -393221, 196608, 0, -393220, 196608, 0, -393219, 196608, 0, -393218, 131072, 0, -393217, 131072, 0, -458752, 131072, 0, -458751, 196608, 0, -262141, 131072, 0, -262142, 131072, 0, -131058, 196608, 0, -196594, 196608, 0, -196593, 196608, 0, -196592, 196608, 0, -131056, 131072, 0, -131057, 196608, 0)
layer_1/tile_data = PackedInt32Array(-65529, 65538, 3, -65530, 65538, 3, -65531, 2, 3, -65528, 524290, 3, -65527, 65538, 3, -65526, 65538, 3, -65525, 524290, 3, -131061, 196610, 1, -196597, 196610, 1, -65524, 65538, 3, -65523, 65538, 3, -65522, 589826, 3, -65521, 65538, 2, -65520, 131074, 2, 14, 196610, 1, 65550, 196610, 1, 131086, 196610, 1, 196622, 196610, 2, 131080, 131074, 3, 131079, 65538, 3, 131078, 2, 3, 196613, 196610, 0, 262149, 196610, 1, 327685, 196610, 1, 393221, 196610, 1, 458757, 196610, 2, 393225, 2, 0, 458761, 2, 2, 458762, 131074, 2, 393226, 131074, 0, 393229, 2, 0, 393230, 65538, 0, 393231, 65538, 0, 393232, 131074, 0, 458768, 131074, 2, 458767, 65538, 2, 458766, 65538, 2, 458765, 2, 2, 131066, 2, 0, 196602, 2, 1, 262138, 2, 1, 327674, 2, 1, 393210, 2, 1, 458746, 2, 1, 524282, 2, 2, 524283, 131074, 2, 458747, 131074, 1, 393211, 131074, 1, 327675, 131074, 1, 262139, 131074, 1, 196603, 327682, 1, 131067, 65538, 0, 131068, 65538, 0, 131069, 65538, 0, 131070, 65538, 0, 131071, 65538, 0, 65536, 65538, 0, 65537, 327682, 0, 65538, 458754, 3, 2, 196610, 1, -65534, 196610, 0, 131073, 131074, 2, 131072, 65538, 2, 196607, 65538, 2, 196606, 65538, 2, 196605, 65538, 2, 196604, 65538, 2, -262133, 196610, 1, -327669, 196610, 0, -393208, 196610, 0, -327672, 196610, 1, -262136, 196610, 1, -196600, 196610, 1, -131064, 196610, 1, -524277, 196610, 3, -524284, 131074, 0, -458748, 458754, 1, -393212, 196610, 1, -327676, 196610, 1, -262140, 458754, 3, -262141, 65538, 3, -262142, 2, 3, -458749, 65538, 2, -458750, 65538, 2, -458751, 65538, 2, -458752, 65538, 2, -393217, 65538, 2, -393218, 65538, 2, -393219, 65538, 2, -393220, 65538, 2, -393221, 65538, 2, -393222, 2, 2, -458758, 2, 0, -458757, 65538, 0, -458756, 65538, 0, -458755, 65538, 0, -458754, 65538, 0, -458753, 65538, 0, -524288, 65538, 0, -524287, 65538, 0, -524286, 65538, 0, -524285, 65538, 0, -131058, 2, 1, -131057, 65538, 1, -131056, 131074, 1, -196592, 131074, 0, -196593, 65538, 0, -196594, 2, 0)

[node name="CharacterJar" parent="Objects" instance=ExtResource("3_pymjb")]
position = Vector2(186, -54)
mass = 1.8
inertia = 0.0

[node name="Camera" type="Camera2D" parent="Objects/CharacterJar"]
zoom = Vector2(4, 4)
limit_left = -96
limit_top = -96
limit_right = 204
limit_bottom = 96
position_smoothing_enabled = true
editor_draw_limits = true
metadata/_edit_lock_ = true

[node name="Areas" type="Node2D" parent="Objects"]

[node name="AreaWin" parent="Objects/Areas" instance=ExtResource("4_o6788")]
position = Vector2(186, 6)

[node name="AreaWin2" parent="Objects/Areas" instance=ExtResource("4_o6788")]
position = Vector2(198, 6)

[node name="AreaLose" parent="Objects/Areas" instance=ExtResource("5_q22v8")]
position = Vector2(54, 102)
scale = Vector2(27, 1)

[node name="AreaLose2" parent="Objects/Areas" instance=ExtResource("5_q22v8")]
position = Vector2(54, -102)
scale = Vector2(27, 1)

[node name="AreaLose3" parent="Objects/Areas" instance=ExtResource("5_q22v8")]
position = Vector2(210, 0)
scale = Vector2(1, 16)

[node name="AreaLose4" parent="Objects/Areas" instance=ExtResource("5_q22v8")]
position = Vector2(-102, 0)
scale = Vector2(1, 16)

[node name="AreaLose5" parent="Objects/Areas" instance=ExtResource("5_q22v8")]
position = Vector2(78, 42)

[node name="AreaLose6" parent="Objects/Areas" instance=ExtResource("5_q22v8")]
position = Vector2(90, 42)

[node name="AreaLose13" parent="Objects/Areas" instance=ExtResource("5_q22v8")]
position = Vector2(-42, 42)

[node name="AreaLose14" parent="Objects/Areas" instance=ExtResource("5_q22v8")]
position = Vector2(-30, 42)

[node name="AreaLose15" parent="Objects/Areas" instance=ExtResource("5_q22v8")]
position = Vector2(-18, 42)

[node name="AreaLose16" parent="Objects/Areas" instance=ExtResource("5_q22v8")]
position = Vector2(-6, 42)

[node name="AreaLose17" parent="Objects/Areas" instance=ExtResource("5_q22v8")]
position = Vector2(6, 42)

[node name="AreaLose7" parent="Objects/Areas" instance=ExtResource("5_q22v8")]
position = Vector2(102, 42)

[node name="AreaLose8" parent="Objects/Areas" instance=ExtResource("5_q22v8")]
position = Vector2(150, -18)

[node name="AreaLose9" parent="Objects/Areas" instance=ExtResource("5_q22v8")]
position = Vector2(162, -18)

[node name="AreaPusher" parent="Objects/Areas" instance=ExtResource("6_3jrjy")]
position = Vector2(30, -30)
push_direction = 1

[node name="AreaPusher2" parent="Objects/Areas" instance=ExtResource("6_3jrjy")]
position = Vector2(30, -18)
push_direction = 1
