[gd_scene load_steps=6 format=3 uid="uid://rjh2jnqja3fl"]

[ext_resource type="Script" path="res://scripts/areas/area_pusher.gd" id="1_23ml4"]
[ext_resource type="Shader" path="res://resources/shaders/scroll.gdshader" id="2_0i8uh"]
[ext_resource type="Texture2D" uid="uid://p4omui0dcv86" path="res://assets/images/game/area_pusher.png" id="3_w41sy"]

[sub_resource type="ShaderMaterial" id="ShaderMaterial_j4w46"]
shader = ExtResource("2_0i8uh")
shader_parameter/speed_horizontal = 0.0
shader_parameter/speed_vertical = null

[sub_resource type="RectangleShape2D" id="RectangleShape2D_blmay"]
size = Vector2(12, 12)

[node name="AreaPusher" type="Area2D" groups=["Area"]]
script = ExtResource("1_23ml4")

[node name="Rect" type="ColorRect" parent="."]
offset_left = -6.0
offset_top = -6.0
offset_right = 6.0
offset_bottom = 6.0
color = Color(0.203922, 0.356863, 1, 0.498039)

[node name="Sprite" type="Sprite2D" parent="."]
texture_repeat = 2
material = SubResource("ShaderMaterial_j4w46")
texture = ExtResource("3_w41sy")

[node name="Collision" type="CollisionShape2D" parent="."]
shape = SubResource("RectangleShape2D_blmay")
debug_color = Color(0, 0, 0, 0.27451)
