[gd_scene load_steps=4 format=3 uid="uid://4tpcw1tlno6q"]

[ext_resource type="FontFile" uid="uid://bbnobed8qta8j" path="res://assets/fonts/editundo.ttf" id="1_7nboo"]
[ext_resource type="Script" path="res://scripts/counter/label_counter.gd" id="2_gd8sm"]

[sub_resource type="LabelSettings" id="LabelSettings_0mud4"]
font_size = 36
shadow_size = 0
shadow_color = Color(0.223529, 0.203922, 0.341176, 1)
shadow_offset = Vector2(0, 0)

[node name="ControlCounter" type="Control"]
layout_mode = 3
anchors_preset = 15
anchor_right = 1.0
anchor_bottom = 1.0
grow_horizontal = 2
grow_vertical = 2

[node name="LabelCounter" type="Label" parent="."]
layout_mode = 1
anchors_preset = -1
anchor_left = 0.5
anchor_right = 0.5
offset_left = -144.0
offset_top = 4.0
offset_right = 144.0
offset_bottom = 48.0
grow_horizontal = 2
theme_override_fonts/font = ExtResource("1_7nboo")
text = "10/10"
label_settings = SubResource("LabelSettings_0mud4")
horizontal_alignment = 1
clip_text = true
script = ExtResource("2_gd8sm")
